House solar energy data analysis
…
Let’s see the data!

Solar energy data

I have another script
that imports the raw solar energy data files, downloaded from the AP Systems website, and wrangles
them into an appropriate (tidy) format.

Here’s what the first few rows of the resulting data table looks
like:

solar.data

## # A tibble: 1,547 × 4
##    date                day         hour    kWh
##    <dttm>              <date>     <dbl>  <dbl>
##  1 2022-07-08 04:00:00 2022-07-08     4  0.002
##  2 2022-07-08 05:00:00 2022-07-08     5  0.02 
##  3 2022-07-08 06:00:00 2022-07-08     6  0.009
##  4 2022-07-08 07:00:00 2022-07-08     7  1.49 
##  5 2022-07-08 08:00:00 2022-07-08     8  1.74 
##  6 2022-07-08 09:00:00 2022-07-08     9  5.65 
##  7 2022-07-08 10:00:00 2022-07-08    10  6.27 
##  8 2022-07-08 11:00:00 2022-07-08    11  9.59 
##  9 2022-07-08 12:00:00 2022-07-08    12 10.8  
## 10 2022-07-08 13:00:00 2022-07-08    13 10.7  
## # … with 1,537 more rows
…
